III semestr/PTC/VHDL_CZCIBOR/zadanie 3/simulation/qsim/7493.msim.vcd
$comment
	File created using the following command:
		vcd file 7493.msim.vcd -direction
$end
$date
	Wed Dec 14 00:58:44 2016
$end
$version
	ModelSim Version 10.1d
$end
$timescale
	1ps
$end
$scope module Eight_Bit_Counter_vlg_vec_tst $end
$var reg 1 ! Clk $end
$var reg 1 " ClrN $end
$var reg 4 # Din1 [3:0] $end
$var reg 4 $ Din2 [3:0] $end
$var reg 1 % LdN $end
$var reg 1 & P $end
$var reg 1 ' T1 $end
$var wire 1 ( Carry2 $end
$var wire 1 ) Qout [7] $end
$var wire 1 * Qout [6] $end
$var wire 1 + Qout [5] $end
$var wire 1 , Qout [4] $end
$var wire 1 - Qout [3] $end
$var wire 1 . Qout [2] $end
$var wire 1 / Qout [1] $end
$var wire 1 0 Qout [0] $end
$var wire 1 1 sampler $end
$scope module i1 $end
$var wire 1 2 gnd $end
$var wire 1 3 vcc $end
$var wire 1 4 unknown $end
$var tri1 1 5 devclrn $end
$var tri1 1 6 devpor $end
$var tri1 1 7 devoe $end
$var wire 1 8 ct1|Q~6_combout $end
$var wire 1 9 Clk~combout $end
$var wire 1 : Clk~clkctrl_outclk $end
$var wire 1 ; ClrN~combout $end
$var wire 1 < LdN~combout $end
$var wire 1 = ct1|Q~0_combout $end
$var wire 1 > T1~combout $end
$var wire 1 ? ct1|Q[0]~1_combout $end
$var wire 1 @ ct1|Q~2_combout $end
$var wire 1 A ct1|Q~3_combout $end
$var wire 1 B ct1|Add0~0_combout $end
$var wire 1 C ct1|Q~4_combout $end
$var wire 1 D ct1|Add0~1_combout $end
$var wire 1 E ct1|Q~5_combout $end
$var wire 1 F ct2|Q~0_combout $end
$var wire 1 G P~combout $end
$var wire 1 H ct1|Cout~0_combout $end
$var wire 1 I ct2|Q[0]~1_combout $end
$var wire 1 J ct2|Q~2_combout $end
$var wire 1 K ct2|Q~3_combout $end
$var wire 1 L ct2|Add0~0_combout $end
$var wire 1 M ct2|Q~4_combout $end
$var wire 1 N ct2|Add0~1_combout $end
$var wire 1 O ct2|Q~5_combout $end
$var wire 1 P ct2|Cout~0_combout $end
$var wire 1 Q ct2|Cout~combout $end
$var wire 1 R ct2|Q [3] $end
$var wire 1 S ct2|Q [2] $end
$var wire 1 T ct2|Q [1] $end
$var wire 1 U ct2|Q [0] $end
$var wire 1 V ct1|Q [3] $end
$var wire 1 W ct1|Q [2] $end
$var wire 1 X ct1|Q [1] $end
$var wire 1 Y ct1|Q [0] $end
$var wire 1 Z Din2~combout [3] $end
$var wire 1 [ Din2~combout [2] $end
$var wire 1 \ Din2~combout [1] $end
$var wire 1 ] Din2~combout [0] $end
$var wire 1 ^ Din1~combout [3] $end
$var wire 1 _ Din1~combout [2] $end
$var wire 1 ` Din1~combout [1] $end
$var wire 1 a Din1~combout [0] $end
$upscope $end
$upscope $end
$enddefinitions $end
#0
$dumpvars
0!
1"
b0 #
b0 $
1%
1&
1'
x(
x0
x/
x.
x-
x,
x+
x*
x)
x1
02
13
x4
15
16
17
x8
09
x:
1;
1<
x=
1>
x?
x@
xA
xB
xC
xD
xE
xF
1G
xH
xI
xJ
xK
xL
xM
xN
xO
xP
xQ
0U
0T
0S
0R
0Y
0X
0W
0V
0]
0\
0[
0Z
0a
0`
0_
0^
$end
#118
0:
#477
0N
#483
0H
#658
0P
#659
0L
#669
0@
#749
0J
#761
0D
#920
0B
#1022
0Q
#3457
0,
#3467
0*
#3647
0-
0+
#3665
0)
#3668
00
#3687
0.
#3934
0/
#4628
0(
#5050
0C
#5077
0M
#5283
0K
#5547
1=
#5607
0E
#5612
1?
#5706
18
#5722
0O
#5786
0A
#5825
1F
#6581
0I
#15000
1!
01
#15999
19
#16117
1:
#17948
1Y
#18271
0=
#18617
1@
#19119
1A
#21616
10
#30000
0!
11
#30999
09
#31117
0:
#45000
1!
01
#45999
19
#46117
1:
#47948
0Y
1X
#48271
1=
#51616
00
#51882
1/
#60000
0!
11
#60999
09
#61117
0:
#75000
1!
01
#75999
19
#76117
1:
#77948
1Y
#78271
0=
#78617
0@
1B
#79119
0A
#79260
1C
#81616
10
#90000
0!
11
#90999
09
#91117
0:
#105000
1!
01
#105999
19
#106117
1:
#107948
0Y
0X
1W
#108271
1=
#111616
00
#111635
1.
#111882
0/
#120000
0!
11
#120999
09
#121117
0:
#135000
1!
01
#135999
19
#136117
1:
#137948
1Y
#138271
0=
#138617
1@
#139119
1A
#141616
10
#150000
0!
11
#150999
09
#151117
0:
#165000
1!
01
#165999
19
#166117
1:
#167948
0Y
1X
#168271
1=
#171616
00
#171882
1/
#180000
0!
11
#180999
09
#181117
0:
#195000
1!
01
#195999
19
#196117
1:
#197948
1Y
#198271
0=
#198565
1H
#198617
0@
0B
#198709
1D
#199119
0A
#199241
1E
#199260
0C
#201616
10
#210000
0!
11
#210999
09
#211117
0:
#225000
1!
01
#225999
19
#226117
1:
#227948
0Y
0X
0W
1V
#228271
1=
#228431
0H
#231595
1-
#231616
00
#231635
0.
#231882
0/
#240000
0!
11
#240999
09
#241117
0:
#255000
1!
01
#255999
19
#256117
1:
#257948
1Y
#258271
0=
#258617
1@
#259119
1A
#261616
10
#270000
0!
11
#270999
09
#271117
0:
#285000
1!
01
#285999
19
#286117
1:
#287948
0Y
1X
#288271
1=
#291616
00
#291882
1/
#300000
0!
11
#300999
09
#301117
0:
#315000
1!
01
#315999
19
#316117
1:
#317948
1Y
#318271
0=
#318617
0@
1B
#319119
0A
#319260
1C
#321616
10
#330000
0!
11
#330999
09
#331117
0:
#345000
1!
01
#345999
19
#346117
1:
#347948
0Y
0X
1W
#348271
1=
#351616
00
#351635
1.
#351882
0/
#360000
0!
11
#360999
09
#361117
0:
#375000
1!
01
#375999
19
#376117
1:
#377948
1Y
#378271
0=
#378617
1@
#379119
1A
#381616
10
#390000
0!
11
#390999
09
#391117
0:
#405000
1!
01
#405999
19
#406117
1:
#407948
0Y
1X
#408271
1=
#411616
00
#411882
1/
#420000
0!
11
#420999
09
#421117
0:
#435000
1!
01
#435999
19
#436117
1:
#437948
1Y
#438271
0=
#438565
1H
#438617
0@
0B
#438709
0D
#438973
1I
#439119
0A
#439241
0E
#439260
0C
#441616
10
#450000
0!
11
#450999
09
#451117
0:
#465000
1!
01
#465999
19
#466117
1:
#467948
0Y
0X
0W
0V
1U
#468271
0F
1=
#468431
0H
#468560
1J
#468690
0I
#469242
1K
#471405
1,
#471595
0-
#471616
00
#471635
0.
#471882
0/
#480000
0!
11
#480999
09
#481117
0:
#495000
1!
01
#495999
19
#496117
1:
#497948
1Y
#498271
0=
#498617
1@
#499119
1A
#501616
10
#510000
0!
11
#510999
09
#511117
0:
#525000
1!
01
#525999
19
#526117
1:
#527948
0Y
1X
#528271
1=
#531616
00
#531882
1/
#540000
0!
11
#540999
09
#541117
0:
#555000
1!
01
#555999
19
#556117
1:
#557948
1Y
#558271
0=
#558617
0@
1B
#559119
0A
#559260
1C
#561616
10
#570000
0!
11
#570999
09
#571117
0:
#585000
1!
01
#585999
19
#586117
1:
#587948
0Y
0X
1W
#588271
1=
#591616
00
#591635
1.
#591882
0/
#600000
0!
11
#600999
09
#601117
0:
#615000
1!
01
#615999
19
#616117
1:
#617948
1Y
#618271
0=
#618617
1@
#619119
1A
#621616
10
#630000
0!
11
#630999
09
#631117
0:
#645000
1!
01
#645999
19
#646117
1:
#647948
0Y
1X
#648271
1=
#651616
00
#651882
1/
#660000
0!
11
#660999
09
#661117
0:
#675000
1!
01
#675999
19
#676117
1:
#677948
1Y
#678271
0=
#678565
1H
#678617
0@
0B
#678709
1D
#679119
0A
#679241
1E
#679260
0C
#681616
10
#690000
0!
11
#690999
09
#691117
0:
#705000
1!
01
#705999
19
#706117
1:
#707948
0Y
0X
0W
1V
#708271
1=
#708431
0H
#711595
1-
#711616
00
#711635
0.
#711882
0/
#720000
0!
11
#720999
09
#721117
0:
#735000
1!
01
#735999
19
#736117
1:
#737948
1Y
#738271
0=
#738617
1@
#739119
1A
#741616
10
#750000
0!
11
#750999
09
#751117
0:
#765000
1!
01
#765999
19
#766117
1:
#767948
0Y
1X
#768271
1=
#771616
00
#771882
1/
#780000
0!
11
#780999
09
#781117
0:
#795000
1!
01
#795999
19
#796117
1:
#797948
1Y
#798271
0=
#798617
0@
1B
#799119
0A
#799260
1C
#801616
10
#810000
0!
11
#810999
09
#811117
0:
#825000
1!
01
#825999
19
#826117
1:
#827948
0Y
0X
1W
#828271
1=
#831616
00
#831635
1.
#831882
0/
#840000
0!
11
#840999
09
#841117
0:
#855000
1!
01
#855999
19
#856117
1:
#857948
1Y
#858271
0=
#858617
1@
#859119
1A
#861616
10
#870000
0!
11
#870999
09
#871117
0:
#885000
1!
01
#885999
19
#886117
1:
#887948
0Y
1X
#888271
1=
#891616
00
#891882
1/
#900000
0!
11
#900999
09
#901117
0:
#915000
1!
01
#915999
19
#916117
1:
#917948
1Y
#918271
0=
#918565
1H
#918617
0@
0B
#918709
0D
#918973
1I
#919119
0A
#919241
0E
#919260
0C
#921616
10
#930000
0!
11
#930999
09
#931117
0:
#945000
1!
01
#945999
19
#946117
1:
#947948
0Y
0X
0W
0V
0U
1T
#948271
1F
1=
#948431
0H
#948690
0I
#951405
0,
#951595
0-
1+
#951616
00
#951635
0.
#951882
0/
#960000
0!
11
#960999
09
#961117
0:
#975000
1!
01
#975999
19
#976117
1:
#977948
1Y
#978271
0=
#978617
1@
#979119
1A
#981616
10
#990000
0!
11
#990999
09
