III semestr/PTC/VHDL_CZCIBOR/zadanie 2/simulation/qsim/modulo.msim.vcd
$comment
	File created using the following command:
		vcd file modulo.msim.vcd -direction
$end
$date
	Wed Dec 21 15:42:04 2016
$end
$version
	ModelSim Version 10.1d
$end
$timescale
	1ps
$end
$scope module D_vhdl_vlg_vec_tst $end
$var reg 1 ! KEY [0:0] $end
$var wire 1 " LEDR [3] $end
$var wire 1 # LEDR [2] $end
$var wire 1 $ LEDR [1] $end
$var wire 1 % LEDR [0] $end
$var wire 1 & sampler $end
$scope module i1 $end
$var wire 1 ' gnd $end
$var wire 1 ( vcc $end
$var wire 1 ) unknown $end
$var tri1 1 * devclrn $end
$var tri1 1 + devpor $end
$var tri1 1 , devoe $end
$var wire 1 - DFF1|Q~0_combout $end
$var wire 1 . DFF2|Q~0_combout $end
$var wire 1 / DFF2|Q~regout $end
$var wire 1 0 DFF4|Q~0_combout $end
$var wire 1 1 DFF4|Q~regout $end
$var wire 1 2 DFF3|Q~0_combout $end
$var wire 1 3 DFF3|Q~regout $end
$var wire 1 4 comb~0_combout $end
$var wire 1 5 DFF1|Q~regout $end
$var wire 1 6 KEY~combout [0] $end
$upscope $end
$upscope $end
$enddefinitions $end
#0
$dumpvars
b0 !
x%
x$
x#
x"
x&
0'
1(
x)
1*
1+
1,
x-
x.
x/
x0
x1
x2
x3
x4
x5
06
$end
#218
0/
01
03
05
#541
1-
12
10
1.
#946
04
#3657
0%
#3658
0#
#3667
0$
#3922
0"
#10000
b1 !
0&
#10979
16
#12379
15
#12702
0-
#15818
1%
#20000
b0 !
1&
#20979
06
#30000
b1 !
0&
#30979
16
#32379
05
#32702
1-
#33456
1/
#33779
0.
#35818
0%
#36905
1$
#40000
b0 !
1&
#40979
06
#50000
b1 !
0&
#50979
16
#52379
15
#52702
0-
#55818
1%
#60000
b0 !
1&
#60979
06
#70000
b1 !
0&
#70979
16
#72379
05
#72702
1-
#73456
0/
#73779
1.
#74690
13
#75013
02
#75818
0%
#76905
0$
#78130
1#
#80000
b0 !
1&
#80979
06
#90000
b1 !
0&
#90979
16
#92379
15
#92702
0-
#95818
1%
#100000
b0 !
1&
#100979
06
#110000
b1 !
0&
#110979
16
#112379
05
#112702
1-
#113456
1/
#113779
0.
#115818
0%
#116905
1$
#120000
b0 !
1&
#120979
06
#130000
b1 !
0&
#130979
16
#132379
15
#132702
0-
#135818
1%
#140000
b0 !
1&
#140979
06
#150000
b1 !
0&
#150979
16
#152379
05
#152702
1-
#153456
0/
#153779
1.
#154690
03
#155013
12
#155776
11
#155818
0%
#156099
00
#156905
0$
#158130
0#
#159480
1"
#160000
b0 !
1&
#160979
06
#170000
b1 !
0&
#170979
16
#172379
15
#172702
0-
#175818
1%
#180000
b0 !
1&
#180979
06
#190000
b1 !
0&
#190979
16
#192379
05
#192702
1-
#193456
1/
#193779
0.
#195818
0%
#196905
1$
#200000
b0 !
1&
#200979
06
#210000
b1 !
0&
#210979
16
#212379
15
#212702
0-
#215818
1%
#220000
b0 !
1&
#220979
06
#230000
b1 !
0&
#230979
16
#232379
05
#232702
1-
#233456
0/
#233779
1.
#234690
13
#235013
02
#235818
0%
#236905
0$
#238130
1#
#240000
b0 !
1&
#240979
06
#250000
b1 !
0&
#250979
16
#252379
15
#252702
0-
#253272
14
#254259
05
#254444
01
03
#254582
1-
#254767
12
10
#255152
04
#257884
0#
#258148
0"
#260000
b0 !
1&
#260979
06
#270000
b1 !
0&
#270979
16
#272379
15
#272702
0-
#275818
1%
#280000
b0 !
1&
#280979
06
#290000
b1 !
0&
#290979
16
#292379
05
#292702
1-
#293456
1/
#293779
0.
#295818
0%
#296905
1$
#300000
b0 !
1&
#300979
06
#310000
b1 !
0&
#310979
16
#312379
15
#312702
0-
#315818
1%
#320000
b0 !
1&
#320979
06
#330000
b1 !
0&
#330979
16
#332379
05
#332702
1-
#333456
0/
#333779
1.
#334690
13
#335013
02
#335818
0%
#336905
0$
#338130
1#
#340000
b0 !
1&
#340979
06
#350000
b1 !
0&
#350979
16
#352379
15
#352702
0-
#355818
1%
#360000
b0 !
1&
#360979
06
#370000
b1 !
0&
#370979
16
#372379
05
#372702
1-
#373456
1/
#373779
0.
#375818
0%
#376905
1$
#380000
b0 !
1&
#380979
06
#390000
b1 !
0&
#390979
16
#392379
15
#392702
0-
#395818
1%
#400000
b0 !
1&
#400979
06
#410000
b1 !
0&
#410979
16
#412379
05
#412702
1-
#413456
0/
#413779
1.
#414690
03
#415013
12
#415776
11
#415818
0%
#416099
00
#416905
0$
#418130
0#
#419480
1"
#420000
b0 !
1&
#420979
06
#430000
b1 !
0&
#430979
16
#432379
15
#432702
0-
#435818
1%
#440000
b0 !
1&
#440979
06
#450000
b1 !
0&
#450979
16
#452379
05
#452702
1-
#453456
1/
#453779
0.
#455818
0%
#456905
1$
#460000
b0 !
1&
#460979
06
#470000
b1 !
0&
#470979
16
#472379
15
#472702
0-
#475818
1%
#480000
b0 !
1&
#480979
06
#490000
b1 !
0&
#490979
16
#492379
05
#492702
1-
#493456
0/
#493779
1.
#494690
13
#495013
02
#495818
0%
#496905
0$
#498130
1#
#500000
b0 !
1&
#500979
06
#510000
b1 !
0&
#510979
16
#512379
15
#512702
0-
#513272
14
#514259
05
#514444
01
03
#514582
1-
#514767
12
10
#515152
04
#517884
0#
#518148
0"
#520000
b0 !
1&
#520979
06
#530000
b1 !
0&
#530979
16
#532379
15
#532702
0-
#535818
1%
#540000
b0 !
1&
#540979
06
#550000
b1 !
0&
#550979
16
#552379
05
#552702
1-
#553456
1/
#553779
0.
#555818
0%
#556905
1$
#560000
b0 !
1&
#560979
06
#570000
b1 !
0&
#570979
16
#572379
15
#572702
0-
#575818
1%
#580000
b0 !
1&
#580979
06
#590000
b1 !
0&
#590979
16
#592379
05
#592702
1-
#593456
0/
#593779
1.
#594690
13
#595013
02
#595818
0%
#596905
0$
#598130
1#
#600000
b0 !
1&
#600979
06
#610000
b1 !
0&
#610979
16
#612379
15
#612702
0-
#615818
1%
#620000
b0 !
1&
#620979
06
#630000
b1 !
0&
#630979
16
#632379
05
#632702
1-
#633456
1/
#633779
0.
#635818
0%
#636905
1$
#640000
b0 !
1&
#640979
06
#650000
b1 !
0&
#650979
16
#652379
15
#652702
0-
#655818
1%
#660000
b0 !
1&
#660979
06
#670000
b1 !
0&
#670979
16
#672379
05
#672702
1-
#673456
0/
#673779
1.
#674690
03
#675013
12
#675776
11
#675818
0%
#676099
00
#676905
0$
#678130
0#
#679480
1"
#680000
b0 !
1&
#680979
06
#690000
b1 !
0&
#690979
16
#692379
15
#692702
0-
#695818
1%
#700000
b0 !
1&
#700979
06
#710000
b1 !
0&
#710979
16
#712379
05
#712702
1-
#713456
1/
#713779
0.
#715818
0%
#716905
1$
#720000
b0 !
1&
#720979
06
#730000
b1 !
0&
#730979
16
#732379
15
#732702
0-
#735818
1%
#740000
b0 !
1&
#740979
06
#750000
b1 !
0&
#750979
16
#752379
05
#752702
1-
#753456
0/
#753779
1.
#754690
13
#755013
02
#755818
0%
#756905
0$
#758130
1#
#760000
b0 !
1&
#760979
06
#770000
b1 !
0&
#770979
16
#772379
15
#772702
0-
#773272
14
#774259
05
#774444
01
03
#774582
1-
#774767
12
10
#775152
04
#777884
0#
#778148
0"
#780000
b0 !
1&
#780979
06
#790000
b1 !
0&
#790979
16
#792379
15
#792702
0-
#795818
1%
#800000
b0 !
1&
#800979
06
#810000
b1 !
0&
#810979
16
#812379
05
#812702
1-
#813456
1/
#813779
0.
#815818
0%
#816905
1$
#820000
b0 !
1&
#820979
06
#830000
b1 !
0&
#830979
16
#832379
15
#832702
0-
#835818
1%
#840000
b0 !
1&
#840979
06
#850000
b1 !
0&
#850979
16
#852379
05
#852702
1-
#853456
0/
#853779
1.
#854690
13
#855013
02
#855818
0%
#856905
0$
#858130
1#
#860000
b0 !
1&
#860979
06
#870000
b1 !
0&
#870979
16
#872379
15
#872702
0-
#875818
1%
#880000
b0 !
1&
#880979
06
#890000
b1 !
0&
#890979
16
#892379
05
#892702
1-
#893456
1/
#893779
0.
#895818
0%
#896905
1$
#900000
b0 !
1&
#900979
06
#910000
b1 !
0&
#910979
16
#912379
15
#912702
0-
#915818
1%
#920000
b0 !
1&
#920979
06
#930000
b1 !
0&
#930979
16
#932379
05
#932702
1-
#933456
0/
#933779
1.
#934690
03
#935013
12
#935776
11
#935818
0%
#936099
00
#936905
0$
#938130
0#
#939480
1"
#940000
b0 !
1&
#940979
06
#950000
b1 !
0&
#950979
16
#952379
15
#952702
0-
#955818
1%
#960000
b0 !
1&
#960979
06
#970000
b1 !
0&
#970979
16
#972379
05
#972702
1-
#973456
1/
#973779
0.
#975818
0%
#976905
1$
#980000
b0 !
1&
#980979
06
#990000
b1 !
0&
#990979
16
#992379
15
#992702
0-
#995818
1%
