III semestr/PTC/VHDL_CZCIBOR/zadanie 1/simulation/qsim/transkoder.msim.vcd
$comment
	File created using the following command:
		vcd file transkoder.msim.vcd -direction
$end
$date
	Wed Dec 21 15:38:40 2016
$end
$version
	ModelSim Version 10.1d
$end
$timescale
	1ps
$end
$scope module transkoder_vlg_vec_tst $end
$var reg 3 ! sw [2:0] $end
$var wire 1 " ledr [2] $end
$var wire 1 # ledr [1] $end
$var wire 1 $ ledr [0] $end
$var wire 1 % sampler $end
$scope module i1 $end
$var wire 1 & gnd $end
$var wire 1 ' vcc $end
$var wire 1 ( unknown $end
$var tri1 1 ) devclrn $end
$var tri1 1 * devpor $end
$var tri1 1 + devoe $end
$var wire 1 , Mux2~0_combout $end
$var wire 1 - Mux1~0_combout $end
$var wire 1 . Mux0~0_combout $end
$var wire 1 / sw~combout [2] $end
$var wire 1 0 sw~combout [1] $end
$var wire 1 1 sw~combout [0] $end
$upscope $end
$upscope $end
$enddefinitions $end
#0
$dumpvars
b0 !
x$
x#
x"
x%
0&
1'
x(
1)
1*
1+
x,
x-
x.
01
00
0/
$end
#1082
0.
#1088
0,
#4439
0"
#4443
0$
#5059
0-
#8428
0#
#10000
b1 !
0%
#10979
11
#11794
1-
#12067
1,
#15163
1#
#15422
1$
#20000
b11 !
b10 !
1%
#20979
10
01
#21789
0,
#21794
0-
#22061
1.
#25144
0$
#25163
0#
#25418
1"
#30000
b11 !
0%
#30979
11
#31794
1-
#32061
0.
#35163
1#
#35418
0"
#40000
b111 !
b101 !
b100 !
1%
#40850
1/
#40979
00
01
#41794
0-
#45163
0#
#45909
1-
#49278
1#
#50000
b101 !
0%
#50979
11
#51794
0-
#52061
1.
#52067
1,
#55163
0#
#55418
1"
#55422
1$
#60000
b111 !
b110 !
1%
#60979
10
01
#61789
0,
#61794
1-
#65144
0$
#65163
1#
#70000
b111 !
0%
#70979
11
#71794
0-
#72061
0.
#75163
0#
#75418
0"
#80000
b11 !
b1 !
b0 !
1%
#80850
0/
#80979
00
01
#81794
1-
#85163
1#
#85909
0-
#89278
0#
#90000
b1 !
0%
#90979
11
#91794
1-
#92067
1,
#95163
1#
#95422
1$
#100000
b11 !
b10 !
1%
#100979
10
01
#101789
0,
#101794
0-
#102061
1.
#105144
0$
#105163
0#
#105418
1"
#110000
b11 !
0%
#110979
11
#111794
1-
#112061
0.
#115163
1#
#115418
0"
#120000
b111 !
b101 !
b100 !
1%
#120850
1/
#120979
00
01
#121794
0-
#125163
0#
#125909
1-
#129278
1#
#130000
b101 !
0%
#130979
11
#131794
0-
#132061
1.
#132067
1,
#135163
0#
#135418
1"
#135422
1$
#140000
b111 !
b110 !
1%
#140979
10
01
#141789
0,
#141794
1-
#145144
0$
#145163
1#
#150000
b111 !
0%
#150979
11
#151794
0-
#152061
0.
#155163
0#
#155418
0"
#160000
b11 !
b1 !
b0 !
1%
#160850
0/
#160979
00
01
#161794
1-
#165163
1#
#165909
0-
#169278
0#
#170000
b1 !
0%
#170979
11
#171794
1-
#172067
1,
#175163
1#
#175422
1$
#180000
b11 !
b10 !
1%
#180979
10
01
#181789
0,
#181794
0-
#182061
1.
#185144
0$
#185163
0#
#185418
1"
#190000
b11 !
0%
#190979
11
#191794
1-
#192061
0.
#195163
1#
#195418
0"
#200000
b111 !
b101 !
b100 !
1%
#200850
1/
#200979
00
01
#201794
0-
#205163
0#
#205909
1-
#209278
1#
#210000
b101 !
0%
#210979
11
#211794
0-
#212061
1.
#212067
1,
#215163
0#
#215418
1"
#215422
1$
#220000
b111 !
b110 !
1%
#220979
10
01
#221789
0,
#221794
1-
#225144
0$
#225163
1#
#230000
b111 !
0%
#230979
11
#231794
0-
#232061
0.
#235163
0#
#235418
0"
#240000
b11 !
b1 !
b0 !
1%
#240850
0/
#240979
00
01
#241794
1-
#245163
1#
#245909
0-
#249278
0#
#250000
b1 !
0%
#250979
11
#251794
1-
#252067
1,
#255163
1#
#255422
1$
#260000
b11 !
b10 !
1%
#260979
10
01
#261789
0,
#261794
0-
#262061
1.
#265144
0$
#265163
0#
#265418
1"
#270000
b11 !
0%
#270979
11
#271794
1-
#272061
0.
#275163
1#
#275418
0"
#280000
b111 !
b101 !
b100 !
1%
#280850
1/
#280979
00
01
#281794
0-
#285163
0#
#285909
1-
#289278
1#
#290000
b101 !
0%
#290979
11
#291794
0-
#292061
1.
#292067
1,
#295163
0#
#295418
1"
#295422
1$
#300000
b111 !
b110 !
1%
#300979
10
01
#301789
0,
#301794
1-
#305144
0$
#305163
1#
#310000
b111 !
0%
#310979
11
#311794
0-
#312061
0.
#315163
0#
#315418
0"
#320000
b11 !
b1 !
b0 !
1%
#320850
0/
#320979
00
01
#321794
1-
#325163
1#
#325909
0-
#329278
0#
#330000
b1 !
0%
#330979
11
#331794
1-
#332067
1,
#335163
1#
#335422
1$
#340000
b11 !
b10 !
1%
#340979
10
01
#341789
0,
#341794
0-
#342061
1.
#345144
0$
#345163
0#
#345418
1"
#350000
b11 !
0%
#350979
11
#351794
1-
#352061
0.
#355163
1#
#355418
0"
#360000
b111 !
b101 !
b100 !
1%
#360850
1/
#360979
00
01
#361794
0-
#365163
0#
#365909
1-
#369278
1#
#370000
b101 !
0%
#370979
11
#371794
0-
#372061
1.
#372067
1,
#375163
0#
#375418
1"
#375422
1$
#380000
b111 !
b110 !
1%
#380979
10
01
#381789
0,
#381794
1-
#385144
0$
#385163
1#
#390000
b111 !
0%
#390979
11
#391794
0-
#392061
0.
#395163
0#
#395418
0"
#400000
b11 !
b1 !
b0 !
1%
#400850
0/
#400979
00
01
#401794
1-
#405163
1#
#405909
0-
#409278
0#
#410000
b1 !
0%
#410979
11
#411794
1-
#412067
1,
#415163
1#
#415422
1$
#420000
b11 !
b10 !
1%
#420979
10
01
#421789
0,
#421794
0-
#422061
1.
#425144
0$
#425163
0#
#425418
1"
#430000
b11 !
0%
#430979
11
#431794
1-
#432061
0.
#435163
1#
#435418
0"
#440000
b111 !
b101 !
b100 !
1%
#440850
1/
#440979
00
01
#441794
0-
#445163
0#
#445909
1-
#449278
1#
#450000
b101 !
0%
#450979
11
#451794
0-
#452061
1.
#452067
1,
#455163
0#
#455418
1"
#455422
1$
#460000
b111 !
b110 !
1%
#460979
10
01
#461789
0,
#461794
1-
#465144
0$
#465163
1#
#470000
b111 !
0%
#470979
11
#471794
0-
#472061
0.
#475163
0#
#475418
0"
#480000
b11 !
b1 !
b0 !
1%
#480850
0/
#480979
00
01
#481794
1-
#485163
1#
#485909
0-
#489278
0#
#490000
b1 !
0%
#490979
11
#491794
1-
#492067
1,
#495163
1#
#495422
1$
#500000
b11 !
b10 !
1%
#500979
10
01
#501789
0,
#501794
0-
#502061
1.
#505144
0$
#505163
0#
#505418
1"
#510000
b11 !
0%
#510979
11
#511794
1-
#512061
0.
#515163
1#
#515418
0"
#520000
b111 !
b101 !
b100 !
1%
#520850
1/
#520979
00
01
#521794
0-
#525163
0#
#525909
1-
#529278
1#
#530000
b101 !
0%
#530979
11
#531794
0-
#532061
1.
#532067
1,
#535163
0#
#535418
1"
#535422
1$
#540000
b111 !
b110 !
1%
#540979
10
01
#541789
0,
#541794
1-
#545144
0$
#545163
1#
#550000
b111 !
0%
#550979
11
#551794
0-
#552061
0.
#555163
0#
#555418
0"
#560000
b11 !
b1 !
b0 !
1%
#560850
0/
#560979
00
01
#561794
1-
#565163
1#
#565909
0-
#569278
0#
#570000
b1 !
0%
#570979
11
#571794
1-
#572067
1,
#575163
1#
#575422
1$
#580000
b11 !
b10 !
1%
#580979
10
01
#581789
0,
#581794
0-
#582061
1.
#585144
0$
#585163
0#
#585418
1"
#590000
b11 !
0%
#590979
11
#591794
1-
#592061
0.
#595163
1#
#595418
0"
#600000
b111 !
b101 !
b100 !
1%
#600850
1/
#600979
00
01
#601794
0-
#605163
0#
#605909
1-
#609278
1#
#610000
b101 !
0%
#610979
11
#611794
0-
#612061
1.
#612067
1,
#615163
0#
#615418
1"
#615422
1$
#620000
b111 !
b110 !
1%
#620979
10
01
#621789
0,
#621794
1-
#625144
0$
#625163
1#
#630000
b111 !
0%
#630979
11
#631794
0-
#632061
0.
#635163
0#
#635418
0"
#640000
b11 !
b1 !
b0 !
1%
#640850
0/
#640979
00
01
#641794
1-
#645163
1#
#645909
0-
#649278
0#
#650000
b1 !
0%
#650979
11
#651794
1-
#652067
1,
#655163
1#
#655422
1$
#660000
b11 !
b10 !
1%
#660979
10
01
#661789
0,
#661794
0-
#662061
1.
#665144
0$
#665163
0#
#665418
1"
#670000
b11 !
0%
#670979
11
#671794
1-
#672061
0.
#675163
1#
#675418
0"
#680000
b111 !
b101 !
b100 !
1%
#680850
1/
#680979
00
01
#681794
0-
#685163
0#
#685909
1-
#689278
1#
#690000
b101 !
0%
#690979
11
#691794
0-
#692061
1.
#692067
1,
#695163
0#
#695418
1"
#695422
1$
#700000
b111 !
b110 !
1%
#700979
10
01
#701789
0,
#701794
1-
#705144
0$
#705163
1#
#710000
b111 !
0%
#710979
11
#711794
0-
#712061
0.
#715163
0#
#715418
0"
#720000
b11 !
b1 !
b0 !
1%
#720850
0/
#720979
00
01
#721794
1-
#725163
1#
#725909
0-
#729278
0#
#730000
b1 !
0%
#730979
11
#731794
1-
#732067
1,
#735163
1#
#735422
1$
#740000
b11 !
b10 !
1%
#740979
10
01
#741789
0,
#741794
0-
#742061
1.
#745144
0$
#745163
0#
#745418
1"
#750000
b11 !
0%
#750979
11
#751794
1-
#752061
0.
#755163
1#
#755418
0"
#760000
b111 !
b101 !
b100 !
1%
#760850
1/
#760979
00
01
#761794
0-
#765163
0#
#765909
1-
#769278
1#
#770000
b101 !
0%
#770979
11
#771794
0-
#772061
1.
#772067
1,
#775163
0#
#775418
1"
#775422
1$
#780000
b111 !
b110 !
1%
#780979
10
01
#781789
0,
#781794
1-
#785144
0$
#785163
1#
#790000
b111 !
0%
#790979
11
#791794
0-
#792061
0.
#795163
0#
#795418
0"
#800000
b11 !
b1 !
b0 !
1%
#800850
0/
#800979
00
01
#801794
1-
#805163
1#
#805909
0-
#809278
0#
#810000
b1 !
0%
#810979
11
#811794
1-
#812067
1,
#815163
1#
#815422
1$
#820000
b11 !
b10 !
1%
#820979
10
01
#821789
0,
#821794
0-
#822061
1.
#825144
0$
#825163
0#
#825418
1"
#830000
b11 !
0%
#830979
11
#831794
1-
#832061
0.
#835163
1#
#835418
0"
#840000
b111 !
b101 !
b100 !
1%
#840850
1/
#840979
00
01
#841794
0-
#845163
0#
#845909
1-
#849278
1#
#850000
b101 !
0%
#850979
11
#851794
0-
#852061
1.
#852067
1,
#855163
0#
#855418
1"
#855422
1$
#860000
b111 !
b110 !
1%
#860979
10
01
#861789
0,
#861794
1-
#865144
0$
#865163
1#
#870000
b111 !
0%
#870979
11
#871794
0-
#872061
0.
#875163
0#
#875418
0"
#880000
b11 !
b1 !
b0 !
1%
#880850
0/
#880979
00
01
#881794
1-
#885163
1#
#885909
0-
#889278
0#
#890000
b1 !
0%
#890979
11
#891794
1-
#892067
1,
#895163
1#
#895422
1$
#900000
b11 !
b10 !
1%
#900979
10
01
#901789
0,
#901794
0-
#902061
1.
#905144
0$
#905163
0#
#905418
1"
#910000
b11 !
0%
#910979
11
#911794
1-
#912061
0.
#915163
1#
#915418
0"
#920000
b111 !
b101 !
b100 !
1%
#920850
1/
#920979
00
01
#921794
0-
#925163
0#
#925909
1-
#929278
1#
#930000
b101 !
0%
#930979
11
#931794
0-
#932061
1.
#932067
1,
#935163
0#
#935418
1"
#935422
1$
#940000
b111 !
b110 !
1%
#940979
10
01
#941789
0,
#941794
1-
#945144
0$
#945163
1#
#950000
b111 !
0%
#950979
11
#951794
0-
#952061
0.
#955163
0#
#955418
0"
#960000
b11 !
b1 !
b0 !
1%
#960850
0/
#960979
00
01
#961794
1-
#965163
1#
#965909
0-
#969278
0#
#970000
b1 !
0%
#970979
11
#971794
1-
#972067
1,
#975163
1#
#975422
1$
#980000
b11 !
b10 !
1%
#980979
10
01
#981789
0,
#981794
0-
#982061
1.
#985144
0$
#985163
0#
#985418
1"
#990000
b11 !
0%
#990979
11
#991794
1-
#992061
0.
#995163
1#
#995418
0"
